[
  {
    "class": null,
    "time": "8:20a-9:50a",
    "day": "W",
    "period": 1
  },
  {
    "class": "AP Gov",
    "time": "8:20a-9:50a",
    "day": "L",
    "period": 2
  },
  {
    "class": "DE Calculus",
    "time": "10:00a-10:50a",
    "day": "WL",
    "period": 3
  },
  {
    "class": "Concert Choir",
    "time": "11:50a-12:30p",
    "day": "L",
    "period": 4
  },
  {
    "class": "English 12",
    "time": "11:50a-12:30p",
    "day": "W",
    "period": 5
  },
  {
    "class": "Computer Programming",
    "time": "1:50p-3:15p",
    "day": "L",
    "period": 6
  },
  {
    "class": "Astronomy",
    "time": "1:30p-3:15p",
    "day": "W",
    "period": 7
  }
]
