banjo_and_kazooie
bayonetta
bowser
bowser_jr
byleth
captain_falcon
chrom
cloud
corrin
daisy
dark_pit
dark_samus
diddy_kong
donkey_kong
dr_mario
duck_hunt
falco
fox
ganondorf
greninja
hero
ice_climbers
ike
incineroar
inkling
isabelle
jigglypuff
joker
ken
king_dedede
king_k_rool
kirby
link
little_mac
lucario
lucas
lucina
luigi
mario
marth
mega_man
meta_knight
mewtwo
mii_brawler
mii_gunner
mii_swordfighter
minmin
mr_game_and_watch
ness
olimar
pac_man
palutena
peach
pichu
pikachu
piranha_plant
pit
pt_squirtle
pt_ivysaur
pt_charizard
richter
ridley
rob
robin
rosalina_and_luma
roy
ryu
samus
sephiroth
sheik
shulk
simon
snake
sonic
steve
terry
toon_link
villager
wario
wii_fit_trainer
wolf
yoshi
young_link
zelda
zero_suit_samus